{
  "defaultConnection": "default",
  "connections": {
    "default": {
      "connector": "mongoose",
      "settings": {
        "uri": "${process.env.DATABASE_URI}",
        "database": "${process.env.DATABASE_NAME}"
      },
      "options": {
        "pool": {
          "min": 0,
          "max": 15,
          "idleTimeoutMillis": 30000,
          "createTimeoutMillis": 30000,
          "acquireTimeoutMillis": 30000
        }
      }
    }
  }
}
