<svg xmlns="http://www.w3.org/2000/svg" viewBox="0 0 166 64" width="166" height="64">
	<defs>
		<clipPath clipPathUnits="userSpaceOnUse" id="cp1">
			<path d="M-296 -2265L1624 -2265L1624 79L-296 79Z" />
		</clipPath>
	</defs>
	<style>
		tspan { white-space:pre }
		.shp0 { fill: #ffffff } 
	</style>
	<g id="Web 1920 – 1" clip-path="url(#cp1)">
		<g id="Group 6">
			<path id="Apple " fill-rule="evenodd" class="shp0" d="M30.38 32.9L12.83 32.9L9.48 41L0.51 41L17.36 3.2L26 3.2L42.9 41L33.72 41L30.38 32.9ZM27.62 26.26L21.63 11.79L15.63 26.26L27.62 26.26ZM77.9 26.47C77.9 35.6 71.58 41.43 63.42 41.43C59.81 41.43 56.84 40.3 54.68 37.92L54.68 51.48L46.25 51.48L46.25 11.95L54.3 11.95L54.3 15.3C56.4 12.76 59.54 11.52 63.42 11.52C71.58 11.52 77.9 17.35 77.9 26.47ZM69.36 26.47C69.36 21.45 66.18 18.43 61.97 18.43C57.75 18.43 54.57 21.45 54.57 26.47C54.57 31.5 57.75 34.52 61.97 34.52C66.18 34.52 69.36 31.5 69.36 26.47ZM115.16 26.47C115.16 35.6 108.84 41.43 100.68 41.43C97.07 41.43 94.1 40.3 91.94 37.92L91.94 51.48L83.51 51.48L83.51 11.95L91.56 11.95L91.56 15.3C93.66 12.76 96.8 11.52 100.68 11.52C108.84 11.52 115.16 17.35 115.16 26.47ZM106.62 26.47C106.62 21.45 103.44 18.43 99.23 18.43C95.01 18.43 91.83 21.45 91.83 26.47C91.83 31.5 95.01 34.52 99.23 34.52C103.44 34.52 106.62 31.5 106.62 26.47ZM120.77 0.93L129.2 0.93L129.2 41L120.77 41L120.77 0.93ZM165.32 28.85L143.34 28.85C144.15 32.47 147.23 34.68 151.66 34.68C154.74 34.68 156.95 33.76 158.95 31.87L163.43 36.73C160.73 39.81 156.68 41.43 151.44 41.43C141.4 41.43 134.87 35.11 134.87 26.47C134.87 17.78 141.51 11.52 150.36 11.52C158.9 11.52 165.48 17.24 165.48 26.58C165.48 27.23 165.38 28.15 165.32 28.85ZM143.24 23.94L157.55 23.94C156.95 20.26 154.2 17.89 150.42 17.89C146.58 17.89 143.83 20.21 143.24 23.94Z" />
			<path id="store" fill-rule="evenodd" class="shp0" d="M103.46 61.85L104.66 59.27C105.76 59.99 107.44 60.47 108.96 60.47C110.61 60.47 111.23 60.03 111.23 59.34C111.23 57.32 103.76 59.39 103.76 54.44C103.76 52.1 105.87 50.44 109.49 50.44C111.19 50.44 113.07 50.83 114.25 51.52L113.05 54.08C111.83 53.39 110.61 53.16 109.49 53.16C107.88 53.16 107.19 53.66 107.19 54.31C107.19 56.42 114.66 54.37 114.66 59.25C114.66 61.55 112.52 63.18 108.82 63.18C106.73 63.18 104.61 62.61 103.46 61.85ZM124.85 62.4C124.11 62.93 123.03 63.18 121.93 63.18C119.01 63.18 117.31 61.69 117.31 58.74L117.31 53.66L115.4 53.66L115.4 50.9L117.31 50.9L117.31 47.89L120.89 47.89L120.89 50.9L123.98 50.9L123.98 53.66L120.89 53.66L120.89 58.7C120.89 59.76 121.47 60.33 122.43 60.33C122.96 60.33 123.49 60.17 123.88 59.87L124.85 62.4ZM125.56 56.81C125.56 53.09 128.44 50.44 132.37 50.44C136.3 50.44 139.16 53.09 139.16 56.81C139.16 60.54 136.3 63.18 132.37 63.18C128.44 63.18 125.56 60.54 125.56 56.81ZM135.52 56.81C135.52 54.67 134.16 53.39 132.37 53.39C130.58 53.39 129.2 54.67 129.2 56.81C129.2 58.95 130.58 60.24 132.37 60.24C134.16 60.24 135.52 58.95 135.52 56.81ZM149.23 50.44L149.23 53.75C148.93 53.73 148.7 53.71 148.42 53.71C146.45 53.71 145.14 54.79 145.14 57.16L145.14 63L141.55 63L141.55 50.63L144.97 50.63L144.97 52.26C145.85 51.06 147.32 50.44 149.23 50.44ZM163.31 57.82L153.94 57.82C154.29 59.37 155.6 60.31 157.49 60.31C158.8 60.31 159.74 59.92 160.59 59.11L162.5 61.18C161.35 62.49 159.63 63.18 157.39 63.18C153.12 63.18 150.33 60.49 150.33 56.81C150.33 53.11 153.16 50.44 156.93 50.44C160.57 50.44 163.37 52.88 163.37 56.86C163.37 57.13 163.33 57.53 163.31 57.82ZM153.9 55.73L159.99 55.73C159.74 54.17 158.57 53.16 156.96 53.16C155.32 53.16 154.15 54.14 153.9 55.73Z" />
		</g>
	</g>
</svg>